{
	"code":0,
	"data":{
		"datas":[
			{
				"addrName":"L",
				"brandId":"BR000516",
				"brandName":"乐视电视",
				"createDate":"2015-09-12 13:20:15",
				"dataMap":{},
				"imgId":"2308cd0540cc7035435409956dfa2f89",
				"new":true,
				"singleFind":"",
				"verified":false,
				"version":0
			},
			{
				"addrName":"K",
				"brandId":"BR000513",
				"brandName":"康佳电视",
				"createDate":"2015-09-09 15:20:01",
				"dataMap":{},
				"imgId":"",
				"new":true,
				"singleFind":"",
				"verified":false,
				"version":0
			},
			{
				"addrName":"X",
				"brandId":"BR000444",
				"brandName":"香雪海",
				"createDate":"2015-05-26 16:40:58",
				"dataMap":{},
				"imgId":"",
				"new":true,
				"singleFind":"",
				"verified":false,
				"version":0
			},
			{
				"addrName":"H",
				"brandId":"BR000443",
				"brandName":"惠康",
				"createDate":"2015-05-08 19:07:14",
				"dataMap":{},
				"imgId":"",
				"new":true,
				"singleFind":"",
				"verified":false,
				"version":0
			},
			{
				"addrName":"H",
				"brandId":"BR000442",
				"brandName":"虹光",
				"createDate":"2015-05-07 22:13:04",
				"dataMap":{},
				"imgId":"",
				"new":true,
				"singleFind":"",
				"verified":false,
				"version":0
			},
			{
				"addrName":"W",
				"brandId":"BR000441",
				"brandName":"威力",
				"createDate":"2015-05-07 21:40:32",
				"dataMap":{},
				"imgId":"",
				"new":true,
				"singleFind":"",
				"verified":false,
				"version":0
			},
			{
				"addrName":"S",
				"brandId":"BR000440",
				"brandName":"思科",
				"createDate":"2015-05-06 11:20:09",
				"dataMap":{},
				"imgId":"",
				"new":true,
				"singleFind":"",
				"verified":false,
				"version":0
			},
			{
				"addrName":"T",
				"brandId":"BR000439",
				"brandName":"天歌",
				"createDate":"2015-05-06 11:20:00",
				"dataMap":{},
				"imgId":"",
				"new":true,
				"singleFind":"",
				"verified":false,
				"version":0
			},
			{
				"addrName":"J",
				"brandId":"BR000438",
				"brandName":"金凯为",
				"createDate":"2015-05-06 11:19:52",
				"dataMap":{},
				"imgId":"",
				"new":true,
				"singleFind":"",
				"verified":false,
				"version":0
			},
			{
				"addrName":"Y",
				"brandId":"BR000437",
				"brandName":"宇龙",
				"createDate":"2015-05-06 11:19:44",
				"dataMap":{},
				"imgId":"",
				"new":true,
				"singleFind":"",
				"verified":false,
				"version":0
			}
		],
		"firstPage":false,
		"lastPage":false,
		"offset":0,
		"page":1,
		"pageCount":10,
		"total":418,
		"totalPage":42
	},
	"error":false,
	"status":"OK",
	"success":true
}