{
	"code":0,
	"data":{
		"datas":[
			{
				"afterservice":"11",
				"batchno":"6DDFEA1EEE382C4",
				"brandid":"BR000040",
				"brandname":"创维",
				"categoryid":"L000007",
				"categoryname":"平板电视",
				"createdate":"2015-11-04 18:03:10",
				"creator":"龙佳",
				"dataMap":{},
				"description":"1",
				"detail":"11",
				"distributionstatus":"0",
				"goodsid":"00MNH",
				"goodsname":"zz",
				"goodstype":"NORMAL",
				"imgid":"076e3caed758a1c18c91a0e9cae3368f",
				"isdelete":"N",
				"iseffective":"N",
				"ispostfree":"N",
				"ispresellenabled":"N",
				"isup":"N",
				"isvirtual":"N",
				"limitprice":0,
				"lmsvolume":0,
				"lmsweight":0,
				"marketprice":0,
				"model":"58E6200",
				"new":true,
				"packlist":"1",
				"productid":"0116001",
				"qty":0,
				"saleprice":0,
				"shopid":"S150831000001",
				"singleFind":"",
				"spec":"颜色",
				"status":"0",
				"unit":"台",
				"verified":false,
				"version":0,
				"unionprice":0,
				"saleqty":0,
				"goodssatus":"N",
				"onsaleprice":0,
				"onsalename":"满减活动",
				"warnqty":0
			},
			{
				"afterservice":"1111",
				"batchno":"EC629D6E6C5D35A",
				"brandid":"BR000062",
				"brandname":"海尔",
				"categoryid":"L00000P",
				"categoryname":"洗衣机",
				"createdate":"2015-11-03 10:39:38",
				"creator":"刘剑",
				"dataMap":{},
				"description":"111",
				"detail":"111",
				"distributionstatus":"0",
				"goodsid":"00MNA",
				"goodsname":"海尔洗衣机1111111111111111",
				"goodstype":"NORMAL",
				"imgid":"076e3caed758a1c18c91a0e9cae3368f",
				"isdelete":"N",
				"iseffective":"Y",
				"ispostfree":"Y",
				"ispresellenabled":"N",
				"isup":"Y",
				"isvirtual":"N",
				"limitprice":0,
				"lmsvolume":0,
				"lmsweight":0,
				"marketprice":8000,
				"model":"XQB85-Z1216",
				"new":true,
				"packlist":"以厂家标配为准",
				"productid":"4000100",
				"qty":0,
				"saleprice":8000,
				"seodescription":"1111",
				"seokeywords":"1111",
				"seotitle":"1111",
				"shopid":"S150831000001",
				"singleFind":"",
				"spec":"图片色",
				"status":"20",
				"unit":"台",
				"updatedate":"2015-11-03 11:29:51",
				"updater":"刘剑",
				"uptime":"2015-11-03 11:29:51",
				"url":"1111",
				"verified":false,
				"version":0,
				"unionprice":0,
				"saleqty":0,
				"goodssatus":"N",
				"onsaleprice":0,
				"onsalename":"满减活动",
				"warnqty":0
			},
			{
				"afterservice":"3",
				"batchno":"E749855FA58F4AA",
				"brandid":"BR000112",
				"brandname":"美的",
				"categoryid":"L00000T",
				"categoryname":"空调",
				"createdate":"2015-10-22 17:42:46",
				"creator":"",
				"dataMap":{},
				"description":"1",
				"detail":"2",
				"distributionstatus":"0",
				"goodsid":"00MN2",
				"goodsname":"zz",
				"goodstype":"NORMAL",
				"imgid":"076e3caed758a1c18c91a0e9cae3368f",
				"isdelete":"N",
				"iseffective":"Y",
				"ispostfree":"N",
				"ispresellenabled":"N",
				"isup":"N",
				"isvirtual":"N",
				"limitprice":0,
				"lmsvolume":0,
				"lmsweight":0,
				"marketprice":0,
				"model":"KFR-26GW/BP2DN1Y-PA402(B3)",
				"new":true,
				"packlist":"以厂家标配为准",
				"productid":"0564202",
				"qty":0,
				"saleprice":0,
				"shopid":"S150831000001",
				"singleFind":"",
				"spec":"白色",
				"status":"20",
				"unit":"台",
				"updatedate":"2015-11-04 17:35:56",
				"updater":"龙佳",
				"verified":false,
				"version":0,
				"unionprice":0,
				"saleqty":0,
				"goodssatus":"N",
				"onsaleprice":0,
				"onsalename":"满减活动",
				"warnqty":0
			},
			{
				"batchno":"00GYM",
				"brandid":"BR000112",
				"brandname":"美的",
				"categoryid":"L00000T",
				"categoryname":"空调",
				"createdate":"2015-06-16 11:37:04",
				"creator":"吴梅洁",
				"dataMap":{},
				"description":"从erp导入",
				"detail":"<img src=\"sysimg/GOODSATTR/20156/00GYM/未标题-150.jpg\" alt=\"\" />",
				"distributionstatus":"0",
				"goodsid":"00GYM",
				"goodsname":"美的空调 KFR-26GW/BP2DN1Y-PA402(B3)",
				"goodstype":"NORMAL",
				"imgid":"2308cd0540cc7035435409956dfa2f89",
				"isdelete":"N",
				"iseffective":"Y",
				"ispostfree":"N",
				"ispresellenabled":"N",
				"isup":"N",
				"isvirtual":"N",
				"limitprice":2750,
				"lmsvolume":0,
				"lmsweight":0,
				"marketprice":2899,
				"model":"KFR-26GW/BP2DN1Y-PA402(B3)",
				"new":true,
				"packlist":"以厂家标配为准",
				"productid":"0564202",
				"qty":0,
				"saleprice":2799,
				"shopid":"S150908000001",
				"singleFind":"",
				"spec":"颜色",
				"status":"0",
				"unit":"台",
				"verified":false,
				"version":0,
				"unionprice":0,
				"saleqty":0,
				"goodssatus":"N",
				"onsaleprice":0,
				"onsalename":"满减活动",
				"warnqty":0
			},
			{
				"batchno":"00GYK",
				"brandid":"BR000112",
				"brandname":"美的",
				"categoryid":"L00000T",
				"categoryname":"空调",
				"createdate":"2015-06-16 11:36:28",
				"creator":"吴梅洁",
				"dataMap":{},
				"description":"从erp导入",
				"detail":"<img src=\"sysimg/GOODSATTR/20156/00GYK/未标题-150.jpg\" alt=\"\" />",
				"distributionstatus":"0",
				"goodsid":"00GYK",
				"goodsname":"美的空调 KFR-35GW/BP2DN1Y-PA402(B3)",
				"goodstype":"NORMAL",
				"imgid":"c9caafe10db817c495f2b5f78ebe361f",
				"isdelete":"N",
				"iseffective":"Y",
				"ispostfree":"N",
				"ispresellenabled":"N",
				"isup":"N",
				"isvirtual":"N",
				"limitprice":3150,
				"lmsvolume":0,
				"lmsweight":0,
				"marketprice":3299,
				"model":"KFR-35GW/BP2DN1Y-PA402(B3)",
				"new":true,
				"packlist":"以厂家标配为准",
				"productid":"0564102",
				"qty":0,
				"saleprice":3199,
				"shopid":"S150908000001",
				"singleFind":"",
				"spec":"CL003",
				"status":"0",
				"unit":"台",
				"verified":false,
				"version":0,
				"unionprice":0,
				"saleqty":0,
				"goodssatus":"N",
				"onsaleprice":0,
				"onsalename":"满减活动",
				"warnqty":0
			},
			{
				"batchno":"00GYH",
				"brandid":"BR000280",
				"brandname":"晶弘",
				"categoryid":"L00000A",
				"categoryname":"冰箱",
				"createdate":"2015-06-12 17:27:31",
				"creator":"胡行飞",
				"dataMap":{},
				"description":"从erp导入",
				"detail":"<img src=\"sysimg/GOODSATTR/20156/00GYH/未标题-2.jpg\" alt=\"\" />",
				"distributionstatus":"0",
				"goodsid":"00GYH",
				"goodsname":"晶弘冰箱 BCD-218TGK金玉红",
				"goodstype":"NORMAL",
				"imgid":"c9caafe10db817c495f2b5f78ebe361f",
				"isdelete":"N",
				"iseffective":"Y",
				"ispostfree":"N",
				"ispresellenabled":"N",
				"isup":"N",
				"isvirtual":"N",
				"limitprice":2199,
				"lmsvolume":0,
				"lmsweight":0,
				"marketprice":2699,
				"model":"BCD-218TGK金玉红",
				"new":true,
				"packlist":"以厂家标配为准",
				"productid":"0329403",
				"qty":0,
				"saleprice":2499,
				"shopid":"S150908000001",
				"singleFind":"",
				"spec":"CL004",
				"status":"20",
				"unit":"台",
				"updatedate":"2015-11-04 17:35:50",
				"updater":"龙佳",
				"verified":false,
				"version":0,
				"unionprice":0,
				"saleqty":0,
				"goodssatus":"N",
				"onsaleprice":0,
				"onsalename":"满减活动",
				"warnqty":0
			},
			{
				"batchno":"00GYF",
				"brandid":"BR000062",
				"brandname":"海尔",
				"categoryid":"L00000T",
				"categoryname":"空调",
				"createdate":"2015-06-12 09:58:41",
				"creator":"吴梅洁",
				"dataMap":{},
				"description":"从erp导入",
				"detail":"<img src=\"sysimg/GOODSATTR/20156/00GYF/未标题-146.jpg\" alt=\"\" />",
				"distributionstatus":"0",
				"goodsid":"00GYF",
				"goodsname":"海尔空调 KF-120QW/22CAH15",
				"goodstype":"NORMAL",
				"imgid":"c9caafe10db817c495f2b5f78ebe361f",
				"isdelete":"N",
				"iseffective":"Y",
				"ispostfree":"N",
				"ispresellenabled":"N",
				"isup":"N",
				"isvirtual":"N",
				"limitprice":7050,
				"lmsvolume":0,
				"lmsweight":0,
				"marketprice":7199,
				"model":"KF-120QW/22CAH15",
				"new":true,
				"packlist":"以厂家标配为准",
				"productid":"0564002",
				"qty":0,
				"saleprice":7099,
				"shopid":"S150908000001",
				"singleFind":"",
				"spec":"CL003",
				"status":"0",
				"unit":"台",
				"verified":false,
				"version":0,
				"unionprice":0,
				"saleqty":0,
				"goodssatus":"N",
				"onsaleprice":0,
				"onsalename":"满减活动",
				"warnqty":0
			},
			{
				"batchno":"00GYD",
				"brandid":"BR000040",
				"brandname":"创维",
				"categoryid":"L000007",
				"categoryname":"平板电视",
				"createdate":"2015-06-11 17:26:10",
				"creator":"杨翠香",
				"dataMap":{},
				"description":"<h2 id=\"promotionDesc\">\n\t<span style=\"font-size:14px;color:#E53333;\">58英寸超高清4K网络Wifi安卓智能LED液晶电视</span>\n</h2>",
				"detail":"<img src=\"sysimg/GOODSATTR/20156/00GYD/未标题-2.jpg\" alt=\"\" />",
				"distributionstatus":"0",
				"goodsid":"00GYD",
				"goodsname":"创维平板电视  58E6200",
				"goodstype":"NORMAL",
				"imgid":"c9caafe10db817c495f2b5f78ebe361f",
				"isdelete":"N",
				"iseffective":"Y",
				"ispostfree":"N",
				"ispresellenabled":"N",
				"isup":"N",
				"isvirtual":"N",
				"limitprice":0,
				"lmsvolume":0,
				"lmsweight":0,
				"marketprice":2000,
				"model":"58E6200",
				"new":true,
				"packlist":"以厂家标配为准",
				"productid":"0116001",
				"qty":0,
				"saleprice":2000,
				"shopid":"S150908000001",
				"singleFind":"",
				"spec":"CL002",
				"status":"20",
				"unit":"台",
				"updatedate":"2015-11-04 17:40:37",
				"updater":"龙佳",
				"verified":false,
				"version":0,
				"unionprice":0,
				"saleqty":0,
				"goodssatus":"N",
				"onsaleprice":0,
				"onsalename":"满减活动",
				"warnqty":0
			},
			{
				"batchno":"00GYB",
				"brandid":"BR000062",
				"brandname":"海尔",
				"categoryid":"L00000P",
				"categoryname":"洗衣机",
				"createdate":"2015-06-11 10:25:08",
				"creator":"胡行飞",
				"dataMap":{},
				"description":"从erp导入",
				"detail":"<img src=\"sysimg/GOODSATTR/20156/00GYB/未标题-2.jpg\" alt=\"\" />",
				"distributionstatus":"0",
				"goodsid":"00GYB",
				"goodsname":"海尔洗衣机 XQB55-M1269M",
				"goodstype":"NORMAL",
				"imgid":"c9caafe10db817c495f2b5f78ebe361f",
				"isdelete":"N",
				"iseffective":"Y",
				"ispostfree":"N",
				"ispresellenabled":"N",
				"isup":"N",
				"isvirtual":"N",
				"limitprice":797,
				"lmsvolume":0,
				"lmsweight":0,
				"marketprice":959,
				"model":"XQB55-M1269M",
				"new":true,
				"packlist":"以厂家标配为准",
				"productid":"0329302",
				"qty":0,
				"saleprice":939,
				"shopid":"S150908000001",
				"singleFind":"",
				"spec":"CL003",
				"status":"0",
				"unit":"台",
				"verified":false,
				"version":0,
				"unionprice":0,
				"saleqty":0,
				"goodssatus":"N",
				"onsaleprice":0,
				"onsalename":"满减活动",
				"warnqty":0
			},
			{
				"batchno":"00GY9",
				"brandid":"BR000061",
				"brandname":"格力",
				"categoryid":"L00000T",
				"categoryname":"空调",
				"createdate":"2015-06-09 11:16:37",
				"creator":"吴梅洁",
				"dataMap":{},
				"description":"从erp导入",
				"detail":"<img src=\"sysimg/GOODSATTR/20156/00GY9/未标题-1.jpg\" alt=\"\" />",
				"distributionstatus":"0",
				"goodsid":"00GY9",
				"goodsname":"格力空调 KFR-72LW/(72596)FNAa-3",
				"goodstype":"NORMAL",
				"imgid":"c9caafe10db817c495f2b5f78ebe361f",
				"isdelete":"N",
				"iseffective":"Y",
				"ispostfree":"N",
				"ispresellenabled":"N",
				"isup":"N",
				"isvirtual":"N",
				"limitprice":7231,
				"lmsvolume":0,
				"lmsweight":0,
				"marketprice":7380,
				"model":"KFR-72LW/(72596)FNAa-3",
				"new":true,
				"packlist":"以厂家标配为准",
				"productid":"0563702",
				"qty":0,
				"saleprice":7280,
				"shopid":"S150908000001",
				"singleFind":"",
				"spec":"CL003",
				"status":"0",
				"unit":"台",
				"verified":false,
				"version":0,
				"unionprice":0,
				"saleqty":0,
				"goodssatus":"N",
				"onsaleprice":0,
				"onsalename":"满减活动",
				"warnqty":0
			}
		],
		"firstPage":false,
		"lastPage":false,
		"offset":0,
		"page":1,
		"pageCount":10,
		"total":11009,
		"totalPage":1101
	},
	"error":false,
	"status":"OK",
	"success":true
}