{
	"code":0,
	"data":{
		"datas":[
			{
				"afterservice":"11",
				"batchno":"6DDFEA1EEE382C4",
				"brandid":"BR000040",
				"brandname":"创维",
				"categoryid":"L000007",
				"categoryname":"平板电视",
				"createdate":"2015-11-04 18:03:10",
				"creator":"龙佳",
				"dataMap":{},
				"description":"1",
				"detail":"11",
				"distributionstatus":"0",
				"goodsid":"00MNH",
				"goodsname":"zz",
				"goodstype":"NORMAL",
				"imgid":"076e3caed758a1c18c91a0e9cae3368f",
				"isdelete":"N",
				"iseffective":"N",
				"ispostfree":"N",
				"ispresellenabled":"N",
				"isup":"N",
				"isvirtual":"N",
				"limitprice":0,
				"lmsvolume":0,
				"lmsweight":0,
				"marketprice":0,
				"model":"58E6200",
				"new":true,
				"packlist":"1",
				"productid":"0116001",
				"qty":0,
				"saleprice":0,
				"shopid":"S150831000001",
				"singleFind":"",
				"spec":"黑色",
				"status":"0",
				"unit":"台",
				"verified":false,
				"unionprice":0,
				"saleqty":0,
				"goodssatus":"N",
				"onsaleprice":0,
				"onsalename":"满减活动"
				"version":0,
				"warnqty":0
			},
			{
				"afterservice":"1111",
				"batchno":"EC629D6E6C5D35A",
				"brandid":"BR000062",
				"brandname":"海尔",
				"categoryid":"L00000P",
				"categoryname":"洗衣机",
				"createdate":"2015-11-03 10:39:38",
				"creator":"刘剑",
				"dataMap":{},
				"description":"111",
				"detail":"111",
				"distributionstatus":"0",
				"goodsid":"00MNA",
				"goodsname":"海尔洗衣机1111111111111111",
				"goodstype":"NORMAL",
				"imgid":"076e3caed758a1c18c91a0e9cae3368f",
				"isdelete":"N",
				"iseffective":"Y",
				"ispostfree":"Y",
				"ispresellenabled":"N",
				"isup":"Y",
				"isvirtual":"N",
				"limitprice":0,
				"lmsvolume":0,
				"lmsweight":0,
				"marketprice":8000,
				"model":"XQB85-Z1216",
				"new":true,
				"packlist":"以厂家标配为准",
				"productid":"4000100",
				"qty":0,
				"saleprice":8000,
				"seodescription":"1111",
				"seokeywords":"1111",
				"seotitle":"1111",
				"shopid":"S150831000001",
				"singleFind":"",
				"spec":"图片色",
				"status":"20",
				"unit":"台",
				"updatedate":"2015-11-03 11:29:51",
				"updater":"刘剑",
				"uptime":"2015-11-03 11:29:51",
				"url":"1111",
				"verified":false,
				"unionprice":0,
				"saleqty":0,
				"goodssatus":"N",
				"onsaleprice":0,
				"onsalename":"满减活动"
				"version":0,
				"warnqty":0
			}
		],
		"firstPage":false,
		"lastPage":false,
		"offset":0,
		"page":1,
		"pageCount":2,
		"total":11009,
		"totalPage":5505
	},
	"error":false,
	"status":"OK",
	"success":true
}